-- Merging decision tree log ---
manifest
ADDED from /Users/nikol/Documents/TU/SS17/MSE/App/Android/Swimmer'sChoice/app/src/main/AndroidManifest.xml:2:1-38:12
	package
		ADDED from /Users/nikol/Documents/TU/SS17/MSE/App/Android/Swimmer'sChoice/app/src/main/AndroidManifest.xml:3:5-33
		INJECTED from /Users/nikol/Documents/TU/SS17/MSE/App/Android/Swimmer'sChoice/app/src/main/AndroidManifest.xml
		INJECTED from /Users/nikol/Documents/TU/SS17/MSE/App/Android/Swimmer'sChoice/app/src/main/AndroidManifest.xml
	android:versionName
		INJECTED from /Users/nikol/Documents/TU/SS17/MSE/App/Android/Swimmer'sChoice/app/src/main/AndroidManifest.xml
		INJECTED from /Users/nikol/Documents/TU/SS17/MSE/App/Android/Swimmer'sChoice/app/src/main/AndroidManifest.xml
	xmlns:android
		ADDED from /Users/nikol/Documents/TU/SS17/MSE/App/Android/Swimmer'sChoice/app/src/main/AndroidManifest.xml:2:11-69
	android:versionCode
		INJECTED from /Users/nikol/Documents/TU/SS17/MSE/App/Android/Swimmer'sChoice/app/src/main/AndroidManifest.xml
		INJECTED from /Users/nikol/Documents/TU/SS17/MSE/App/Android/Swimmer'sChoice/app/src/main/AndroidManifest.xml
uses-permission#android.permission.INTERNET
ADDED from /Users/nikol/Documents/TU/SS17/MSE/App/Android/Swimmer'sChoice/app/src/main/AndroidManifest.xml:5:5-67
	android:name
		ADDED from /Users/nikol/Documents/TU/SS17/MSE/App/Android/Swimmer'sChoice/app/src/main/AndroidManifest.xml:5:22-64
uses-permission#android.permission.ACCESS_FINE_LOCATION
ADDED from /Users/nikol/Documents/TU/SS17/MSE/App/Android/Swimmer'sChoice/app/src/main/AndroidManifest.xml:6:5-79
	android:name
		ADDED from /Users/nikol/Documents/TU/SS17/MSE/App/Android/Swimmer'sChoice/app/src/main/AndroidManifest.xml:6:22-76
uses-permission#android.permission.ACCESS_COARSE_LOCATION
ADDED from /Users/nikol/Documents/TU/SS17/MSE/App/Android/Swimmer'sChoice/app/src/main/AndroidManifest.xml:7:5-81
	android:name
		ADDED from /Users/nikol/Documents/TU/SS17/MSE/App/Android/Swimmer'sChoice/app/src/main/AndroidManifest.xml:7:22-78
application
ADDED from /Users/nikol/Documents/TU/SS17/MSE/App/Android/Swimmer'sChoice/app/src/main/AndroidManifest.xml:9:5-36:19
MERGED from [com.android.support:design:25.3.1] /Users/nikol/.android/build-cache/e37fdfea8bc54bb49a3e6b2dbaa69bbaa8048399/output/AndroidManifest.xml:29:5-20
MERGED from [com.android.support:appcompat-v7:25.3.1] /Users/nikol/.android/build-cache/df8e177d15ee72e8683df98f1dc9ae6c955f15f3/output/AndroidManifest.xml:29:5-20
MERGED from [com.android.support:animated-vector-drawable:25.3.1] /Users/nikol/.android/build-cache/eb52085e68123969d55e59e24efd4ebc7f935050/output/AndroidManifest.xml:26:5-20
MERGED from [com.android.support:transition:25.3.1] /Users/nikol/.android/build-cache/1c180d294e20907562891fcd281a2ef549e7b312/output/AndroidManifest.xml:26:5-20
MERGED from [com.android.support:support-vector-drawable:25.3.1] /Users/nikol/.android/build-cache/64a77c9fa6bdad46b94e8ff983c98898d91c28ad/output/AndroidManifest.xml:26:5-20
MERGED from [com.google.android.gms:play-services-location:7.0.0] /Users/nikol/.android/build-cache/cadbca8b33efa8422c32c0c96fab1dff6a708362/output/AndroidManifest.xml:19:5-20
MERGED from [com.google.android.gms:play-services-maps:7.0.0] /Users/nikol/.android/build-cache/2288ddf3f880ceb0a40e142a28573d7a7827d9e9/output/AndroidManifest.xml:19:5-20
MERGED from [com.google.android.gms:play-services-base:7.0.0] /Users/nikol/.android/build-cache/fd2eb4f3ea306176d005753952e37cc24c33e681/output/AndroidManifest.xml:20:5-24:19
MERGED from [com.android.support:support-v4:25.3.1] /Users/nikol/.android/build-cache/fe28b3fdf8498440ccc93d811088bef68c4bbbb4/output/AndroidManifest.xml:29:5-20
MERGED from [com.android.support:support-fragment:25.3.1] /Users/nikol/.android/build-cache/31ffd0168f30a5d6df409c616145989a69c68b74/output/AndroidManifest.xml:29:5-20
MERGED from [com.android.support:support-media-compat:25.3.1] /Users/nikol/.android/build-cache/9fee192fe4aed28281dfa4f0743aa07f22fe4dd9/output/AndroidManifest.xml:29:5-20
MERGED from [com.android.support:support-core-ui:25.3.1] /Users/nikol/.android/build-cache/8421d3930bf495058d1919e05c491f2713e96a2b/output/AndroidManifest.xml:29:5-20
MERGED from [com.android.support:support-core-utils:25.3.1] /Users/nikol/.android/build-cache/2af003e916e81e4b67cd5bea30db3e91bccc4e3c/output/AndroidManifest.xml:29:5-20
MERGED from [com.android.support:percent:25.3.1] /Users/nikol/.android/build-cache/4dbb214b462734d86cdd794c21b1fb71ad2fd8b9/output/AndroidManifest.xml:26:5-20
MERGED from [com.android.support:support-compat:25.3.1] /Users/nikol/.android/build-cache/e8c6b673a7e2714e5a2ecd2471112d68d6044546/output/AndroidManifest.xml:29:5-20
	android:label
		ADDED from /Users/nikol/Documents/TU/SS17/MSE/App/Android/Swimmer'sChoice/app/src/main/AndroidManifest.xml:12:9-41
	android:supportsRtl
		ADDED from /Users/nikol/Documents/TU/SS17/MSE/App/Android/Swimmer'sChoice/app/src/main/AndroidManifest.xml:14:9-35
	android:roundIcon
		ADDED from /Users/nikol/Documents/TU/SS17/MSE/App/Android/Swimmer'sChoice/app/src/main/AndroidManifest.xml:13:9-54
	android:allowBackup
		ADDED from /Users/nikol/Documents/TU/SS17/MSE/App/Android/Swimmer'sChoice/app/src/main/AndroidManifest.xml:10:9-35
	android:icon
		ADDED from /Users/nikol/Documents/TU/SS17/MSE/App/Android/Swimmer'sChoice/app/src/main/AndroidManifest.xml:11:9-43
	android:theme
		ADDED from /Users/nikol/Documents/TU/SS17/MSE/App/Android/Swimmer'sChoice/app/src/main/AndroidManifest.xml:15:9-40
activity#com.swimmerschoice.MainActivity
ADDED from /Users/nikol/Documents/TU/SS17/MSE/App/Android/Swimmer'sChoice/app/src/main/AndroidManifest.xml:16:9-28:20
	android:label
		ADDED from /Users/nikol/Documents/TU/SS17/MSE/App/Android/Swimmer'sChoice/app/src/main/AndroidManifest.xml:18:13-45
	android:name
		ADDED from /Users/nikol/Documents/TU/SS17/MSE/App/Android/Swimmer'sChoice/app/src/main/AndroidManifest.xml:17:13-41
intent-filter#android.intent.action.MAIN+android.intent.action.SEARCH+android.intent.category.LAUNCHER
ADDED from /Users/nikol/Documents/TU/SS17/MSE/App/Android/Swimmer'sChoice/app/src/main/AndroidManifest.xml:19:13-23:29
action#android.intent.action.MAIN
ADDED from /Users/nikol/Documents/TU/SS17/MSE/App/Android/Swimmer'sChoice/app/src/main/AndroidManifest.xml:20:17-69
	android:name
		ADDED from /Users/nikol/Documents/TU/SS17/MSE/App/Android/Swimmer'sChoice/app/src/main/AndroidManifest.xml:20:25-66
action#android.intent.action.SEARCH
ADDED from /Users/nikol/Documents/TU/SS17/MSE/App/Android/Swimmer'sChoice/app/src/main/AndroidManifest.xml:21:17-71
	android:name
		ADDED from /Users/nikol/Documents/TU/SS17/MSE/App/Android/Swimmer'sChoice/app/src/main/AndroidManifest.xml:21:25-68
category#android.intent.category.LAUNCHER
ADDED from /Users/nikol/Documents/TU/SS17/MSE/App/Android/Swimmer'sChoice/app/src/main/AndroidManifest.xml:22:17-77
	android:name
		ADDED from /Users/nikol/Documents/TU/SS17/MSE/App/Android/Swimmer'sChoice/app/src/main/AndroidManifest.xml:22:27-74
meta-data#android.app.searchable
ADDED from /Users/nikol/Documents/TU/SS17/MSE/App/Android/Swimmer'sChoice/app/src/main/AndroidManifest.xml:24:13-27:25
	android:resource
		ADDED from /Users/nikol/Documents/TU/SS17/MSE/App/Android/Swimmer'sChoice/app/src/main/AndroidManifest.xml:26:17-51
	android:name
		ADDED from /Users/nikol/Documents/TU/SS17/MSE/App/Android/Swimmer'sChoice/app/src/main/AndroidManifest.xml:25:17-54
activity#com.swimmerschoice.LocationDetailActivity
ADDED from /Users/nikol/Documents/TU/SS17/MSE/App/Android/Swimmer'sChoice/app/src/main/AndroidManifest.xml:29:9-32:15
	android:label
		ADDED from /Users/nikol/Documents/TU/SS17/MSE/App/Android/Swimmer'sChoice/app/src/main/AndroidManifest.xml:30:21-53
	android:parentActivityName
		ADDED from /Users/nikol/Documents/TU/SS17/MSE/App/Android/Swimmer'sChoice/app/src/main/AndroidManifest.xml:31:21-63
	android:name
		ADDED from /Users/nikol/Documents/TU/SS17/MSE/App/Android/Swimmer'sChoice/app/src/main/AndroidManifest.xml:29:19-57
activity#com.swimmerschoice.PopInfoActivity
ADDED from /Users/nikol/Documents/TU/SS17/MSE/App/Android/Swimmer'sChoice/app/src/main/AndroidManifest.xml:33:9-35:20
	android:theme
		ADDED from /Users/nikol/Documents/TU/SS17/MSE/App/Android/Swimmer'sChoice/app/src/main/AndroidManifest.xml:33:51-94
	android:name
		ADDED from /Users/nikol/Documents/TU/SS17/MSE/App/Android/Swimmer'sChoice/app/src/main/AndroidManifest.xml:33:19-50
uses-sdk
INJECTED from /Users/nikol/Documents/TU/SS17/MSE/App/Android/Swimmer'sChoice/app/src/main/AndroidManifest.xml reason: use-sdk injection requested
MERGED from [com.android.support:design:25.3.1] /Users/nikol/.android/build-cache/e37fdfea8bc54bb49a3e6b2dbaa69bbaa8048399/output/AndroidManifest.xml:21:5-23:62
MERGED from [com.android.support:appcompat-v7:25.3.1] /Users/nikol/.android/build-cache/df8e177d15ee72e8683df98f1dc9ae6c955f15f3/output/AndroidManifest.xml:21:5-23:78
MERGED from [com.android.support:animated-vector-drawable:25.3.1] /Users/nikol/.android/build-cache/eb52085e68123969d55e59e24efd4ebc7f935050/output/AndroidManifest.xml:20:5-44
MERGED from [com.android.support:recyclerview-v7:25.3.1] /Users/nikol/.android/build-cache/b8dd23fb46afb4607f2997ce6a5cfed4374d5177/output/AndroidManifest.xml:20:5-43
MERGED from [com.android.support:transition:25.3.1] /Users/nikol/.android/build-cache/1c180d294e20907562891fcd281a2ef549e7b312/output/AndroidManifest.xml:20:5-44
MERGED from [com.android.support:support-vector-drawable:25.3.1] /Users/nikol/.android/build-cache/64a77c9fa6bdad46b94e8ff983c98898d91c28ad/output/AndroidManifest.xml:20:5-43
MERGED from [com.google.android.gms:play-services-location:7.0.0] /Users/nikol/.android/build-cache/cadbca8b33efa8422c32c0c96fab1dff6a708362/output/AndroidManifest.xml:18:5-42
MERGED from [com.google.android.gms:play-services-maps:7.0.0] /Users/nikol/.android/build-cache/2288ddf3f880ceb0a40e142a28573d7a7827d9e9/output/AndroidManifest.xml:18:5-42
MERGED from [com.google.android.gms:play-services-base:7.0.0] /Users/nikol/.android/build-cache/fd2eb4f3ea306176d005753952e37cc24c33e681/output/AndroidManifest.xml:18:5-42
MERGED from [com.android.support:support-v4:25.3.1] /Users/nikol/.android/build-cache/fe28b3fdf8498440ccc93d811088bef68c4bbbb4/output/AndroidManifest.xml:21:5-23:54
MERGED from [com.android.support:support-fragment:25.3.1] /Users/nikol/.android/build-cache/31ffd0168f30a5d6df409c616145989a69c68b74/output/AndroidManifest.xml:21:5-23:60
MERGED from [com.android.support:support-media-compat:25.3.1] /Users/nikol/.android/build-cache/9fee192fe4aed28281dfa4f0743aa07f22fe4dd9/output/AndroidManifest.xml:21:5-23:63
MERGED from [com.android.support:support-core-ui:25.3.1] /Users/nikol/.android/build-cache/8421d3930bf495058d1919e05c491f2713e96a2b/output/AndroidManifest.xml:21:5-23:58
MERGED from [com.android.support:support-core-utils:25.3.1] /Users/nikol/.android/build-cache/2af003e916e81e4b67cd5bea30db3e91bccc4e3c/output/AndroidManifest.xml:21:5-23:61
MERGED from [com.android.support:percent:25.3.1] /Users/nikol/.android/build-cache/4dbb214b462734d86cdd794c21b1fb71ad2fd8b9/output/AndroidManifest.xml:20:5-43
MERGED from [com.android.support:support-compat:25.3.1] /Users/nikol/.android/build-cache/e8c6b673a7e2714e5a2ecd2471112d68d6044546/output/AndroidManifest.xml:21:5-23:58
	tools:overrideLibrary
		ADDED from [com.android.support:design:25.3.1] /Users/nikol/.android/build-cache/e37fdfea8bc54bb49a3e6b2dbaa69bbaa8048399/output/AndroidManifest.xml:23:9-59
	android:targetSdkVersion
		INJECTED from /Users/nikol/Documents/TU/SS17/MSE/App/Android/Swimmer'sChoice/app/src/main/AndroidManifest.xml
		INJECTED from /Users/nikol/Documents/TU/SS17/MSE/App/Android/Swimmer'sChoice/app/src/main/AndroidManifest.xml
	android:minSdkVersion
		INJECTED from /Users/nikol/Documents/TU/SS17/MSE/App/Android/Swimmer'sChoice/app/src/main/AndroidManifest.xml
		INJECTED from /Users/nikol/Documents/TU/SS17/MSE/App/Android/Swimmer'sChoice/app/src/main/AndroidManifest.xml
meta-data#android.support.VERSION
ADDED from [com.android.support:design:25.3.1] /Users/nikol/.android/build-cache/e37fdfea8bc54bb49a3e6b2dbaa69bbaa8048399/output/AndroidManifest.xml:25:5-27:34
MERGED from [com.android.support:appcompat-v7:25.3.1] /Users/nikol/.android/build-cache/df8e177d15ee72e8683df98f1dc9ae6c955f15f3/output/AndroidManifest.xml:25:5-27:34
MERGED from [com.android.support:animated-vector-drawable:25.3.1] /Users/nikol/.android/build-cache/eb52085e68123969d55e59e24efd4ebc7f935050/output/AndroidManifest.xml:22:5-24:34
MERGED from [com.android.support:recyclerview-v7:25.3.1] /Users/nikol/.android/build-cache/b8dd23fb46afb4607f2997ce6a5cfed4374d5177/output/AndroidManifest.xml:22:5-24:34
MERGED from [com.android.support:transition:25.3.1] /Users/nikol/.android/build-cache/1c180d294e20907562891fcd281a2ef549e7b312/output/AndroidManifest.xml:22:5-24:34
MERGED from [com.android.support:support-vector-drawable:25.3.1] /Users/nikol/.android/build-cache/64a77c9fa6bdad46b94e8ff983c98898d91c28ad/output/AndroidManifest.xml:22:5-24:34
MERGED from [com.android.support:support-v4:25.3.1] /Users/nikol/.android/build-cache/fe28b3fdf8498440ccc93d811088bef68c4bbbb4/output/AndroidManifest.xml:25:5-27:34
MERGED from [com.android.support:support-fragment:25.3.1] /Users/nikol/.android/build-cache/31ffd0168f30a5d6df409c616145989a69c68b74/output/AndroidManifest.xml:25:5-27:34
MERGED from [com.android.support:support-media-compat:25.3.1] /Users/nikol/.android/build-cache/9fee192fe4aed28281dfa4f0743aa07f22fe4dd9/output/AndroidManifest.xml:25:5-27:34
MERGED from [com.android.support:support-core-ui:25.3.1] /Users/nikol/.android/build-cache/8421d3930bf495058d1919e05c491f2713e96a2b/output/AndroidManifest.xml:25:5-27:34
MERGED from [com.android.support:support-core-utils:25.3.1] /Users/nikol/.android/build-cache/2af003e916e81e4b67cd5bea30db3e91bccc4e3c/output/AndroidManifest.xml:25:5-27:34
MERGED from [com.android.support:percent:25.3.1] /Users/nikol/.android/build-cache/4dbb214b462734d86cdd794c21b1fb71ad2fd8b9/output/AndroidManifest.xml:22:5-24:34
MERGED from [com.android.support:support-compat:25.3.1] /Users/nikol/.android/build-cache/e8c6b673a7e2714e5a2ecd2471112d68d6044546/output/AndroidManifest.xml:25:5-27:34
	android:value
		ADDED from [com.android.support:design:25.3.1] /Users/nikol/.android/build-cache/e37fdfea8bc54bb49a3e6b2dbaa69bbaa8048399/output/AndroidManifest.xml:27:9-31
	android:name
		ADDED from [com.android.support:design:25.3.1] /Users/nikol/.android/build-cache/e37fdfea8bc54bb49a3e6b2dbaa69bbaa8048399/output/AndroidManifest.xml:26:9-47
meta-data#com.google.android.gms.version
ADDED from [com.google.android.gms:play-services-base:7.0.0] /Users/nikol/.android/build-cache/fd2eb4f3ea306176d005753952e37cc24c33e681/output/AndroidManifest.xml:21:9-23:69
	android:value
		ADDED from [com.google.android.gms:play-services-base:7.0.0] /Users/nikol/.android/build-cache/fd2eb4f3ea306176d005753952e37cc24c33e681/output/AndroidManifest.xml:23:13-66
	android:name
		ADDED from [com.google.android.gms:play-services-base:7.0.0] /Users/nikol/.android/build-cache/fd2eb4f3ea306176d005753952e37cc24c33e681/output/AndroidManifest.xml:22:13-58
